{
  "_class": "symbolInstance",
  "do_objectID": "A6BA8DA3-B603-48A8-BE37-44ABB8180BA4",
  "exportOptions": {
    "_class": "exportOptions",
    "exportFormats": [
    ],
    "includedLayerIds": [
    ],
    "layerOptions": 0,
    "shouldTrim": false
  },
  "frame": {
    "_class": "rect",
    "constrainProportions": false,
    "height": 72,
    "width": 258,
    "x": 0,
    "y": 304
  },
  "horizontalSpacing": 0,
  "isFlippedHorizontal": false,
  "isFlippedVertical": false,
  "isLocked": false,
  "isVisible": true,
  "layerListExpandedType": 0,
  "masterInfluenceEdgeMaxXPadding": 0,
  "masterInfluenceEdgeMaxYPadding": 0,
  "masterInfluenceEdgeMinXPadding": 0,
  "masterInfluenceEdgeMinYPadding": 0,
  "name": "issuable-sidebar--expanded/molecules/text/",
  "nameIsFixed": true,
  "overrides": {
    "3FEFE840-9026-4451-AC1A-28662B8210DA": {
      "57ABFC35-FCC3-46A5-AF7C-85765FE03A85": "No due date",
      "587ABEDB-84AA-488F-ACD6-BBD68090C7C7": "9.4",
      "8C0BE2BD-7105-4AB3-B5F5-4CB0F38CB976": "Due date",
      "8CE36429-A4E8-405A-A148-C7BDCE19E87C": "Due date",
      "symbolID": "81DC9C2F-8A63-4EC6-94BF-D95B12873929"
    }
  },
  "resizingConstraint": 63,
  "resizingType": 0,
  "rotation": 0,
  "shouldBreakMaskChain": false,
  "style": {
    "_class": "style",
    "endDecorationType": 0,
    "miterLimit": 10,
    "startDecorationType": 0
  },
  "symbolID": "84B41D35-AE39-4BB1-BF0E-658CC11AB7DC",
  "verticalSpacing": 0
}