{
  "_class": "symbolInstance",
  "do_objectID": "2BC27CE5-23F2-4784-A2DE-B40D13C12A82",
  "exportOptions": {
    "_class": "exportOptions",
    "exportFormats": [
    ],
    "includedLayerIds": [
    ],
    "layerOptions": 0,
    "shouldTrim": false
  },
  "frame": {
    "_class": "rect",
    "constrainProportions": false,
    "height": 16,
    "width": 16,
    "x": 16,
    "y": 12
  },
  "horizontalSpacing": 0,
  "isFlippedHorizontal": false,
  "isFlippedVertical": false,
  "isLocked": false,
  "isVisible": true,
  "layerListExpandedType": 0,
  "masterInfluenceEdgeMaxXPadding": 0,
  "masterInfluenceEdgeMaxYPadding": 0,
  "masterInfluenceEdgeMinXPadding": 0,
  "masterInfluenceEdgeMinYPadding": 0,
  "name": "icon",
  "nameIsFixed": true,
  "overrides": {
    "1F9C5DBD-0062-4D1E-AE8E-CDB8A4B5D168": {
      "symbolID": "AD0A5BE3-C298-430F-A6CC-BEB211422E99"
    },
    "47AD2932-6DAA-4196-9B76-0E40E9A2E5B6": {
      "symbolID": "AD0A5BE3-C298-430F-A6CC-BEB211422E99"
    },
    "921FF423-FCD4-4215-A4F0-8211F1BB56BB": {
      "symbolID": "B4DC62F6-F70D-4CE6-B80E-F0C7F95A58C0"
    },
    "97D855D6-79F4-4167-8F3A-59C10ADCA006": {
      "symbolID": "82060AFB-5C5F-4178-A8BD-C12F1F115034"
    },
    "9FF5CD70-7C61-47DE-A3A8-E593F89906D2": {
      "symbolID": "0017318A-E133-40B4-88FF-D62FC9BCB5A5"
    },
    "BC393430-08BA-43EC-90D8-625B09686CFB": {
      "97D855D6-79F4-4167-8F3A-59C10ADCA006": {
        "symbolID": "82060AFB-5C5F-4178-A8BD-C12F1F115034"
      }
    }
  },
  "resizingConstraint": 25,
  "resizingType": 0,
  "rotation": 0,
  "shouldBreakMaskChain": false,
  "style": {
    "_class": "style",
    "endDecorationType": 0,
    "miterLimit": 10,
    "startDecorationType": 0
  },
  "symbolID": "1A05D9AF-3090-4766-89A8-949947478616",
  "verticalSpacing": 0
}