{
  "_class": "shapeGroup",
  "clippingMaskMode": 0,
  "do_objectID": "7E9BF705-CABA-4F24-BBFE-B2D03B0F6AD7",
  "exportOptions": {
    "_class": "exportOptions",
    "exportFormats": [
    ],
    "includedLayerIds": [
    ],
    "layerOptions": 0,
    "shouldTrim": false
  },
  "frame": {
    "_class": "rect",
    "constrainProportions": false,
    "height": 4,
    "width": 120,
    "x": 0,
    "y": 0
  },
  "hasClickThrough": false,
  "hasClippingMask": false,
  "isFlippedHorizontal": false,
  "isFlippedVertical": false,
  "isLocked": false,
  "isVisible": true,
  "layerListExpandedType": 1,
  "layers": [
    {
      "class": "rectangle",
      "id": "7C5271A6-C017-4578-91FD-A1672B174CB5"
    }
  ],
  "name": "Rectangle 5 Copy 6",
  "nameIsFixed": false,
  "resizingConstraint": 63,
  "resizingType": 0,
  "rotation": 0,
  "shouldBreakMaskChain": false,
  "style": {
    "sharedObjectID": "9CB928EF-78AC-4324-A09C-757116A899EA"
  },
  "windingRule": 1
}