{
  "_class": "group",
  "do_objectID": "B2D45560-809F-4110-A84F-2FEAF8D4C48C",
  "exportOptions": {
    "_class": "exportOptions",
    "exportFormats": [
    ],
    "includedLayerIds": [
    ],
    "layerOptions": 0,
    "shouldTrim": false
  },
  "frame": {
    "_class": "rect",
    "constrainProportions": false,
    "height": 1587,
    "width": 1459,
    "x": 343,
    "y": 144
  },
  "hasClickThrough": false,
  "isFlippedHorizontal": false,
  "isFlippedVertical": false,
  "isLocked": false,
  "isVisible": true,
  "layerListExpandedType": 0,
  "layers": [
    {
      "class": "group",
      "id": "FB53F577-830D-4934-855F-7BB3D2CA1F63"
    },
    {
      "class": "symbolInstance",
      "id": "B9169752-3DA6-4A95-B377-1C1CB1180433"
    },
    {
      "class": "symbolInstance",
      "id": "9D842A5B-1489-478D-AE81-A9497C7C005F"
    },
    {
      "class": "symbolInstance",
      "id": "83A35D6C-05FD-40DD-9CB0-8791F71CC21D"
    },
    {
      "class": "symbolInstance",
      "id": "4C3C3F74-62D8-4FB7-800B-AF7BE8EE49C4"
    },
    {
      "class": "symbolInstance",
      "id": "8FF8FB64-58CB-4A2F-BA8A-DA971F9D3814"
    },
    {
      "class": "symbolInstance",
      "id": "B37C349C-720C-4514-8E9D-2EA43FFEBBAE"
    },
    {
      "class": "symbolInstance",
      "id": "958C0E23-51F8-4ABB-A7C7-D42A8221CC97"
    },
    {
      "class": "symbolInstance",
      "id": "CB70CEDC-3B3A-47CD-86B7-965675397FC3"
    },
    {
      "class": "symbolInstance",
      "id": "8BC77448-4F51-4DEF-BF53-19A65286CDE7"
    },
    {
      "class": "symbolInstance",
      "id": "FB6AAB32-33D1-4EAE-8208-0C4B778C63BB"
    },
    {
      "class": "symbolInstance",
      "id": "CFB50B5E-0C15-40DA-8C18-62607585D825"
    },
    {
      "class": "symbolInstance",
      "id": "C33D3DDE-A55F-4C31-A33A-E74C1412F1C7"
    },
    {
      "class": "symbolInstance",
      "id": "45ABE529-C270-43AD-9603-19D94D4D2EFC"
    },
    {
      "class": "symbolInstance",
      "id": "9A00BCBC-403B-460C-8DDC-EE863AB79709"
    },
    {
      "class": "symbolInstance",
      "id": "6086E81C-408D-421B-9610-208B4A0169D6"
    },
    {
      "class": "symbolInstance",
      "id": "4246B977-1B2D-4720-8607-E7B6E06BD558"
    },
    {
      "class": "symbolInstance",
      "id": "D6A9B058-0F0D-4929-9586-395A851B6D30"
    },
    {
      "class": "symbolInstance",
      "id": "1C5F25FE-C59E-4386-ACE9-67C121220E5E"
    },
    {
      "class": "symbolInstance",
      "id": "1CABF117-C0BC-4C37-BF2C-B63FBF0C3839"
    },
    {
      "class": "symbolInstance",
      "id": "91F97DAE-B012-441C-BB3C-E1570E8BC8BB"
    },
    {
      "class": "symbolInstance",
      "id": "BDA6393F-FC4E-451A-84D3-50E9F255F29C"
    },
    {
      "class": "symbolInstance",
      "id": "C33E98AA-E8D2-4882-B3F6-595BD77CEBF9"
    },
    {
      "class": "symbolInstance",
      "id": "11612DB2-B8C6-45C2-8C53-329831B84227"
    },
    {
      "class": "symbolInstance",
      "id": "FCAB72F6-34C7-416A-8AAB-C2B1182A128B"
    },
    {
      "class": "symbolInstance",
      "id": "D58FB797-4317-4315-A0A8-71F788F5E4A4"
    },
    {
      "class": "symbolInstance",
      "id": "3D9D2FA1-7102-498D-A47D-EF92D9E4D074"
    },
    {
      "class": "symbolInstance",
      "id": "C66C30CA-95D9-427A-9134-86990C270640"
    },
    {
      "class": "symbolInstance",
      "id": "0C95A53F-68A0-4A73-824C-A05DED0E3E94"
    },
    {
      "class": "symbolInstance",
      "id": "90F438C1-F215-4178-B0D3-C82EF183C771"
    },
    {
      "class": "symbolInstance",
      "id": "57CE708E-6142-414F-BBE9-E848FB1EBA77"
    },
    {
      "class": "symbolInstance",
      "id": "61EC550D-7052-49D3-908A-C4C93DF9897E"
    },
    {
      "class": "symbolInstance",
      "id": "8576C548-55AE-4A28-AF00-B5EE86AC921F"
    },
    {
      "class": "symbolInstance",
      "id": "25D84044-4276-41DA-A6AB-1675C7D5C081"
    },
    {
      "class": "symbolInstance",
      "id": "ED1236C0-1B15-4B73-9193-862E9B773DFE"
    },
    {
      "class": "symbolInstance",
      "id": "F911AF2A-2F8E-4872-A974-6269F171B0C9"
    },
    {
      "class": "symbolInstance",
      "id": "0CD0C40F-578C-4032-A270-D3067388F94A"
    },
    {
      "class": "symbolInstance",
      "id": "6C2A21CC-4B46-4F09-88E2-69568F07390B"
    },
    {
      "class": "symbolInstance",
      "id": "5BCEF8E6-F31B-4B4C-A133-4C37D3789E1A"
    },
    {
      "class": "symbolInstance",
      "id": "8B4FE3A6-37E8-4114-9C54-69E36F82209A"
    },
    {
      "class": "symbolInstance",
      "id": "B8D4634A-08B7-432C-921B-DECD55DB1F27"
    },
    {
      "class": "symbolInstance",
      "id": "47F9B1CC-3E68-4DB4-B384-A497CAD84593"
    },
    {
      "class": "symbolInstance",
      "id": "07188D39-0F8E-4269-98EC-5ACC1A4F7C43"
    },
    {
      "class": "symbolInstance",
      "id": "81FA99F4-C788-4A96-B08E-F216A1384697"
    },
    {
      "class": "symbolInstance",
      "id": "32BD20C6-4CF9-47DD-84F8-5C1CCC2D913C"
    },
    {
      "class": "symbolInstance",
      "id": "A9DA090E-3294-4C38-A16C-83A174840787"
    },
    {
      "class": "symbolInstance",
      "id": "65066140-8592-4DCE-8E36-ECA058560140"
    },
    {
      "class": "symbolInstance",
      "id": "5C697429-B90C-4E95-BE6F-9B84EC4275BB"
    },
    {
      "class": "symbolInstance",
      "id": "82AA6349-4EFD-4CB7-A974-9931C5096DDC"
    },
    {
      "class": "symbolInstance",
      "id": "4A90ED4C-9D3C-46D0-974B-725E54BEB2C1"
    },
    {
      "class": "symbolInstance",
      "id": "55E3AE0A-71A6-4FBC-9F6C-9F0D60DF9B17"
    },
    {
      "class": "symbolInstance",
      "id": "08531E56-DEEF-4A6A-9D83-95484835C730"
    },
    {
      "class": "symbolInstance",
      "id": "0A58C0AC-6E34-4967-8ED2-A4018D69ECFA"
    },
    {
      "class": "symbolInstance",
      "id": "9DAF600D-F64E-472E-BBD4-2C3C7F63F9FE"
    },
    {
      "class": "symbolInstance",
      "id": "CBC50849-75FB-4E8E-B789-270EC226A579"
    }
  ],
  "name": "weekenddays",
  "nameIsFixed": true,
  "resizingConstraint": 63,
  "resizingType": 0,
  "rotation": 0,
  "shouldBreakMaskChain": false,
  "style": {
    "_class": "style",
    "endDecorationType": 0,
    "miterLimit": 10,
    "startDecorationType": 0
  }
}