{
  "_class": "group",
  "do_objectID": "2D30109B-AB16-4868-AB1B-09BDEF08F3BD",
  "exportOptions": {
    "_class": "exportOptions",
    "exportFormats": [
    ],
    "includedLayerIds": [
    ],
    "layerOptions": 0,
    "shouldTrim": false
  },
  "frame": {
    "_class": "rect",
    "constrainProportions": false,
    "height": 28,
    "width": 647,
    "x": 607,
    "y": 1162
  },
  "hasClickThrough": false,
  "isFlippedHorizontal": false,
  "isFlippedVertical": false,
  "isLocked": false,
  "isVisible": true,
  "layerListExpandedType": 2,
  "layers": [
    {
      "class": "shapeGroup",
      "id": "BCD6B532-B023-473B-9FF9-A296837288CF"
    },
    {
      "class": "shapeGroup",
      "id": "C7F78CF9-6CEA-4C77-814E-C3C1604D97CA"
    },
    {
      "class": "shapeGroup",
      "id": "A883CBB8-AD99-4186-81CF-2C1005909B4F"
    },
    {
      "class": "text",
      "id": "21D89B62-4E52-46C8-B48B-09D6108202C3"
    }
  ],
  "name": "new_epic copy 15",
  "nameIsFixed": true,
  "resizingConstraint": 63,
  "resizingType": 0,
  "rotation": 0,
  "shouldBreakMaskChain": false,
  "style": {
    "_class": "style",
    "endDecorationType": 0,
    "miterLimit": 10,
    "startDecorationType": 0
  }
}