{
  "_class": "shapePath",
  "booleanOperation": -1,
  "do_objectID": "392D97FE-D2C8-45EF-BFE3-F7620DC628F8",
  "edited": true,
  "exportOptions": {
    "_class": "exportOptions",
    "exportFormats": [
    ],
    "includedLayerIds": [
    ],
    "layerOptions": 0,
    "shouldTrim": false
  },
  "frame": {
    "_class": "rect",
    "constrainProportions": false,
    "height": 13.33333333333333,
    "width": 13.3333333333336,
    "x": 1.333333333333266,
    "y": 1.333333333333334
  },
  "isFlippedHorizontal": false,
  "isFlippedVertical": false,
  "isLocked": false,
  "isVisible": true,
  "layerListExpandedType": 0,
  "name": "Path",
  "nameIsFixed": false,
  "path": {
    "_class": "path",
    "isClosed": true,
    "pointRadiusBehaviour": 0,
    "points": [
      {
        "_class": "curvePoint",
        "cornerRadius": 0,
        "curveFrom": "{1, 0.43229132812499999}",
        "curveMode": 2,
        "curveTo": "{1, 0.56770867187499996}",
        "hasCurveFrom": true,
        "hasCurveTo": true,
        "point": "{1, 0.50000000000000011}"
      },
      {
        "_class": "curvePoint",
        "cornerRadius": 0,
        "curveFrom": "{0.93359361718747025, 0.24414031640625003}",
        "curveMode": 2,
        "curveTo": "{0.98671888281247067, 0.36757843359374992}",
        "hasCurveFrom": true,
        "hasCurveTo": true,
        "point": "{0.96015624999997051, 0.30585937500000004}"
      },
      {
        "_class": "curvePoint",
        "cornerRadius": 0,
        "curveFrom": "{0.80898415234374099, 0.10195290234374998}",
        "curveMode": 2,
        "curveTo": "{0.89804709765623969, 0.19101584765625002}",
        "hasCurveFrom": true,
        "hasCurveTo": true,
        "point": "{0.85351562499997269, 0.14648437499999994}"
      },
      {
        "_class": "curvePoint",
        "cornerRadius": 0,
        "curveFrom": "{0.63242156640622682, 0.013281117187500002}",
        "curveMode": 2,
        "curveTo": "{0.7558596835937299, 0.066406382812499984}",
        "hasCurveFrom": true,
        "hasCurveTo": true,
        "point": "{0.69414062499999607, 0.039843750000000067}"
      },
      {
        "_class": "curvePoint",
        "cornerRadius": 0,
        "curveFrom": "{0.43229132812501053, 0}",
        "curveMode": 2,
        "curveTo": "{0.56770867187498941, 0}",
        "hasCurveFrom": true,
        "hasCurveTo": true,
        "point": "{0.5, 0}"
      },
      {
        "_class": "curvePoint",
        "cornerRadius": 0,
        "curveFrom": "{0.24414031640623471, 0.066406382812499984}",
        "curveMode": 2,
        "curveTo": "{0.36757843359373776, 0.013281117187500002}",
        "hasCurveFrom": true,
        "hasCurveTo": true,
        "point": "{0.30585937500000393, 0.039843750000000067}"
      },
      {
        "_class": "curvePoint",
        "cornerRadius": 0,
        "curveFrom": "{0.10195290234376035, 0.19101584765625002}",
        "curveMode": 2,
        "curveTo": "{0.19101584765625898, 0.10195290234374998}",
        "hasCurveFrom": true,
        "hasCurveTo": true,
        "point": "{0.14648437499999198, 0.14648437499999994}"
      },
      {
        "_class": "curvePoint",
        "cornerRadius": 0,
        "curveFrom": "{0.013281117187493929, 0.36757843359374992}",
        "curveMode": 2,
        "curveTo": "{0.066406382812494349, 0.24414031640625003}",
        "hasCurveFrom": true,
        "hasCurveTo": true,
        "point": "{0.039843749999994141, 0.30585937500000004}"
      },
      {
        "_class": "curvePoint",
        "cornerRadius": 0,
        "curveFrom": "{0, 0.56770867187499996}",
        "curveMode": 2,
        "curveTo": "{0, 0.43229132812499999}",
        "hasCurveFrom": true,
        "hasCurveTo": true,
        "point": "{0, 0.50000000000000011}"
      },
      {
        "_class": "curvePoint",
        "cornerRadius": 0,
        "curveFrom": "{0.066406382812494349, 0.75585968359375}",
        "curveMode": 2,
        "curveTo": "{0.013281117187493929, 0.63242156640624991}",
        "hasCurveFrom": true,
        "hasCurveTo": true,
        "point": "{0.039843749999994141, 0.69414062499999996}"
      },
      {
        "_class": "curvePoint",
        "cornerRadius": 0,
        "curveFrom": "{0.19101584765625898, 0.89804709765625002}",
        "curveMode": 2,
        "curveTo": "{0.10195290234376035, 0.80898415234374987}",
        "hasCurveFrom": true,
        "hasCurveTo": true,
        "point": "{0.14648437499999198, 0.85351562500000011}"
      },
      {
        "_class": "curvePoint",
        "cornerRadius": 0,
        "curveFrom": "{0.36757843359373776, 0.98671888281249998}",
        "curveMode": 2,
        "curveTo": "{0.24414031640623471, 0.93359361718749989}",
        "hasCurveFrom": true,
        "hasCurveTo": true,
        "point": "{0.30585937500000393, 0.96015625000000004}"
      },
      {
        "_class": "curvePoint",
        "cornerRadius": 0,
        "curveFrom": "{0.56770867187498941, 1}",
        "curveMode": 2,
        "curveTo": "{0.43229132812501053, 1}",
        "hasCurveFrom": true,
        "hasCurveTo": true,
        "point": "{0.5, 1}"
      },
      {
        "_class": "curvePoint",
        "cornerRadius": 0,
        "curveFrom": "{0.7558596835937299, 0.93359361718749989}",
        "curveMode": 2,
        "curveTo": "{0.63242156640622682, 0.98671888281249998}",
        "hasCurveFrom": true,
        "hasCurveTo": true,
        "point": "{0.69414062499999607, 0.96015625000000004}"
      },
      {
        "_class": "curvePoint",
        "cornerRadius": 0,
        "curveFrom": "{0.89804709765623969, 0.80898415234374987}",
        "curveMode": 2,
        "curveTo": "{0.80898415234374099, 0.89804709765625002}",
        "hasCurveFrom": true,
        "hasCurveTo": true,
        "point": "{0.85351562499997269, 0.85351562500000011}"
      },
      {
        "_class": "curvePoint",
        "cornerRadius": 0,
        "curveFrom": "{0.98671888281247067, 0.63242156640624991}",
        "curveMode": 2,
        "curveTo": "{0.93359361718747025, 0.75585968359375}",
        "hasCurveFrom": true,
        "hasCurveTo": true,
        "point": "{0.96015624999997051, 0.69414062499999996}"
      }
    ]
  },
  "resizingConstraint": 63,
  "resizingType": 0,
  "rotation": 0,
  "shouldBreakMaskChain": false
}