{
  "_class": "artboard",
  "backgroundColor": {
    "_class": "color",
    "alpha": 1,
    "blue": 1,
    "green": 1,
    "red": 1
  },
  "do_objectID": "6C31B116-1B01-446C-A041-C88F82651533",
  "exportOptions": {
    "_class": "exportOptions",
    "exportFormats": [
    ],
    "includedLayerIds": [
    ],
    "layerOptions": 0,
    "shouldTrim": false
  },
  "frame": {
    "_class": "rect",
    "constrainProportions": false,
    "height": 424,
    "width": 821,
    "x": 9822,
    "y": 2097
  },
  "hasBackgroundColor": false,
  "hasClickThrough": false,
  "horizontalRulerData": {
    "_class": "rulerData",
    "base": 0,
    "guides": [
    ]
  },
  "includeBackgroundColorInExport": true,
  "includeInCloudUpload": true,
  "isFlippedHorizontal": false,
  "isFlippedVertical": false,
  "isLocked": false,
  "isVisible": true,
  "layerListExpandedType": 2,
  "layers": [
    {
      "class": "group",
      "id": "75E19290-FCE0-47BD-9D51-4B76CFEF13CE"
    },
    {
      "class": "group",
      "id": "C4E3D0CA-6259-4CFB-99D9-C49D64F79171"
    },
    {
      "class": "text",
      "id": "EF4D86A9-7439-4066-9F8E-F35A6E119656"
    },
    {
      "class": "text",
      "id": "B77CCFE2-8281-41D9-BD83-9D1E63A6A3DC"
    },
    {
      "class": "text",
      "id": "E5467DA2-C04E-4854-92BF-522799D4A437"
    },
    {
      "class": "text",
      "id": "7D4C4566-D96B-4861-A555-3CBF0833D5E0"
    },
    {
      "class": "text",
      "id": "7CC1E755-32EF-4611-B1E5-695441C6EC45"
    },
    {
      "class": "text",
      "id": "545ADF28-23A1-4FD9-93B6-BD0BAB191362"
    }
  ],
  "name": "Artboard 2",
  "nameIsFixed": false,
  "resizesContent": false,
  "resizingConstraint": 63,
  "resizingType": 0,
  "rotation": 0,
  "shouldBreakMaskChain": false,
  "style": {
    "_class": "style",
    "endDecorationType": 0,
    "miterLimit": 10,
    "startDecorationType": 0
  },
  "verticalRulerData": {
    "_class": "rulerData",
    "base": 0,
    "guides": [
    ]
  }
}