<?xml version="1.0" encoding="UTF-8"?>
<svg width="16px" height="16px" viewBox="0 0 16 16" version="1.1" xmlns="http://www.w3.org/2000/svg" xmlns:xlink="http://www.w3.org/1999/xlink">
    <!-- Generator: Sketch 61.2 (89653) - https://sketch.com -->
    <title>icn/file-deletion-solid</title>
    <desc>Created with Sketch.</desc>
    <g id="icn/file-deletion-solid" stroke="none" stroke-width="1" fill="none" fill-rule="evenodd">
        <path d="M4,2 C2.89543,2 2,2.89543 2,4 L2,12 C2,13.1046 2.89543,14 4,14 L12,14 C13.1046,14 14,13.1046 14,12 L14,4 C14,2.89543 13.1046,2 12,2 L4,2 Z M11,8 C11,7.44772 10.5523,7 10,7 L6,7 C5.44772,7 5,7.44772 5,8 C5,8.55228 5.44771,9 6,9 L10,9 C10.5523,9 11,8.55229 11,8 Z" id="icon" fill="#000000"></path>
    </g>
</svg>